{
	"db": "mongodb://localhost:27017",
	"server": {
		"port": 3000,
		"address": "0.0.0.0"
	},
	"accessControl": {
		"allowOrigin": "*",
		"allowMethods": "GET",
        "allowCredentials": false
	},
    "mongoOptions": {
        "serverOptions": {
        },
        "dbOptions": {
            "w": 1
        }
    },
	"humanReadableOutput": true,
	"collectionOutputType": "json",
	"urlPrefix": ""
}
